interrupt-sim.vcd
$timescale 10ns $end
$scope module logic $end
$var wire 8 ! PORT_D $end
$upscope $end
$enddefinitions $end
$dumpvars
bxxxxxxxx !
$end
#419435356
b10100000 !
#419435357
b10100000 !
#429426325
b01000000 !
#429426326
b01000000 !
#439417275
b10100000 !
#439417276
b10100000 !
#449408243
b01000000 !
#449408244
b01000000 !
#459399193
b10100000 !
#459399194
b10100000 !
#469390162
b01000000 !
#469390163
b01000000 !
#479381112
b10100000 !
#479381113
b10100000 !
#489372081
b01000000 !
#489372082
b01000000 !
#499363031
b10100000 !
#499363032
b10100000 !
#509354000
b01000000 !
#509354001
b01000000 !
#519344950
b10100000 !
#519344951
b10100000 !
#529335918
b01000000 !
#529335919
b01000000 !
#539326868
b10100000 !
#539326869
b10100000 !
#549317837
b01000000 !
#549317838
b01000000 !
#559308787
b10100000 !
#559308788
b10100000 !
#569299756
b01000000 !
#569299757
b01000000 !
#579290706
b10100000 !
#579290707
b10100000 !
#589281675
b01000000 !
#589281676
b01000000 !
#599272625
b10100000 !
#599272626
b10100000 !
#609263593
b01000000 !
#609263594
b01000000 !
#619254543
b10100000 !
#619254544
b10100000 !
#629245512
b01000000 !
#629245513
b01000000 !
#639236462
b10100000 !
#639236463
b10100000 !
#649227431
b01000000 !
#649227432
b01000000 !
#659218381
b10100000 !
#659218382
b10100000 !
#669209350
b01000000 !
#669209351
b01000000 !
#679200300
b10100000 !
#679200301
b10100000 !
#689191268
b01000000 !
#689191269
b01000000 !
#699182218
b10100000 !
#699182219
b10100000 !
#709173187
b01000000 !
#709173188
b01000000 !
#719164137
b10100000 !
#719164138
b10100000 !
#729155106
b01000000 !
#729155107
b01000000 !
#739146056
b10100000 !
#739146057
b10100000 !
#749137025
b01000000 !
#749137026
b01000000 !
#759127975
b10100000 !
#759127976
b10100000 !
#769118943
b01000000 !
#769118944
b01000000 !
#779109893
b10100000 !
#779109894
b10100000 !
#789100862
b01000000 !
#789100863
b01000000 !
#799091812
b10100000 !
#799091813
b10100000 !
#809082781
b01000000 !
#809082782
b01000000 !
#819073731
b10100000 !
#819073732
b10100000 !
#829064700
b01000000 !
#829064701
b01000000 !
#839055650
b10100000 !
#839055651
b10100000 !
#849046618
b01000000 !
#849046619
b01000000 !
#859037568
b10100000 !
#859037569
b10100000 !
#869028537
b01000000 !
#869028538
b01000000 !
#879019487
b10100000 !
#879019488
b10100000 !
#889010456
b01000000 !
#889010457
b01000000 !
#899001406
b10100000 !
#899001407
b10100000 !
#908992375
b01000000 !
#908992376
b01000000 !
#918983325
b10100000 !
#918983326
b10100000 !
#928974293
b01000000 !
#928974294
b01000000 !
#938965243
b10100000 !
#938965244
b10100000 !
#948956212
b01000000 !
#948956213
b01000000 !
#958947162
b10100000 !
#958947163
b10100000 !
#968938131
b01000000 !
#968938132
b01000000 !
#978929081
b10100000 !
#978929082
b10100000 !
#988920050
b01000000 !
#988920051
b01000000 !
#998911000
b10100000 !
#998911001
b10100000 !
#1008901968
b01000000 !
#1008901969
b01000000 !
#1018892918
b10100000 !
#1018892919
b10100000 !
#1028883887
b01000000 !
#1028883888
b01000000 !
#1038874837
b10100000 !
#1038874838
b10100000 !
#1048865806
b01000000 !
#1048865807
b01000000 !
#1058856756
b10100000 !
#1058856757
b10100000 !
#1068847725
b01000000 !
#1068847726
b01000000 !
#1078838675
b10100000 !
#1078838676
b10100000 !
#1088829643
b01000000 !
#1088829644
b01000000 !
#1098820593
b10100000 !
#1098820594
b10100000 !
#1108811562
b01000000 !
#1108811563
b01000000 !
#1118802512
b10100000 !
#1118802513
b10100000 !
#1128793481
b01000000 !
#1128793482
b01000000 !
#1138784431
b10100000 !
#1138784432
b10100000 !
#1148775400
b01000000 !
#1148775401
b01000000 !
#1158766350
b10100000 !
#1158766351
b10100000 !
#1168757318
b01000000 !
#1168757319
b01000000 !
#1178748268
b10100000 !
#1178748269
b10100000 !
#1188739237
b01000000 !
#1188739238
b01000000 !
#1198730187
b10100000 !
#1198730188
b10100000 !
#1208721156
b01000000 !
#1208721157
b01000000 !
#1218712106
b10100000 !
#1218712107
b10100000 !
#1228703075
b01000000 !
#1228703076
b01000000 !
#1238694025
b10100000 !
#1238694026
b10100000 !
#1248684993
b01000000 !
#1248684994
b01000000 !
#1258675943
b10100000 !
#1258675944
b10100000 !
#1268666912
b01000000 !
#1268666913
b01000000 !
#1278657862
b10100000 !
#1278657863
b10100000 !
#1288648831
b01000000 !
#1288648832
b01000000 !
#1298639781
b10100000 !
#1298639782
b10100000 !
#1308630750
b01000000 !
#1308630751
b01000000 !
#1318621700
b10100000 !
#1318621701
b10100000 !
#1328612668
b01000000 !
#1328612669
b01000000 !
#1338603618
b10100000 !
#1338603619
b10100000 !
#1348594587
b01000000 !
#1348594588
b01000000 !
#1358585537
b10100000 !
#1358585538
b10100000 !
#1368576506
b01000000 !
#1368576507
b01000000 !
#1378567456
b10100000 !
#1378567457
b10100000 !
#1388558425
b01000000 !
#1388558426
b01000000 !
#1398549375
b10100000 !
#1398549376
b10100000 !
#1408540343
b01000000 !
#1408540344
b01000000 !
#1418531293
b10100000 !
#1418531294
b10100000 !
#1428522262
b01000000 !
#1428522263
b01000000 !
#1438513212
b10100000 !
#1438513213
b10100000 !
#1448504181
b01000000 !
#1448504182
b01000000 !
#1458495131
b10100000 !
#1458495132
b10100000 !
#1468486100
b01000000 !
#1468486101
b01000000 !
#1478477050
b10100000 !
#1478477051
b10100000 !
#1488468018
b01000000 !
#1488468019
b01000000 !
#1498458968
b10100000 !
#1498458969
b10100000 !
#1508449937
b01000000 !
#1508449938
b01000000 !
#1518440887
b10100000 !
#1518440888
b10100000 !
#1528431856
b01000000 !
#1528431857
b01000000 !
#1538422806
b10100000 !
#1538422807
b10100000 !
#1548413775
b01000000 !
#1548413776
b01000000 !
#1558404725
b10100000 !
#1558404726
b10100000 !
#1568395693
b01000000 !
#1568395694
b01000000 !
#1578386643
b10100000 !
#1578386644
b10100000 !
#1588377612
b01000000 !
#1588377613
b01000000 !
#1598368562
b10100000 !
#1598368563
b10100000 !
#1608359531
b01000000 !
#1608359532
b01000000 !
#1618350481
b10100000 !
#1618350482
b10100000 !
#1628341450
b01000000 !
#1628341451
b01000000 !
#1638332400
b10100000 !
#1638332401
b10100000 !
#1648323368
b01000000 !
#1648323369
b01000000 !
#1658314318
b10100000 !
#1658314319
b10100000 !
#1668305287
b01000000 !
#1668305288
b01000000 !
#1678296237
b10100000 !
#1678296238
b10100000 !
#1688287206
b01000000 !
#1688287207
b01000000 !
#1698278156
b10100000 !
#1698278157
b10100000 !
#1708269125
b01000000 !
#1708269126
b01000000 !
#1718260075
b10100000 !
#1718260076
b10100000 !
#1728251043
b01000000 !
#1728251044
b01000000 !
#1738241993
b10100000 !
#1738241994
b10100000 !
#1748232962
b01000000 !
#1748232963
b01000000 !
#1758223912
b10100000 !
#1758223913
b10100000 !
#1768214881
b01000000 !
#1768214882
b01000000 !
#1778205831
b10100000 !
#1778205832
b10100000 !
#1788196800
b01000000 !
#1788196801
b01000000 !
#1798187750
b10100000 !
#1798187751
b10100000 !
#1808178718
b01000000 !
#1808178719
b01000000 !
#1818169668
b10100000 !
#1818169669
b10100000 !
#1828160637
b01000000 !
#1828160638
b01000000 !
#1838151587
b10100000 !
#1838151588
b10100000 !
#1848142556
b01000000 !
#1848142557
b01000000 !
#1858133506
b10100000 !
#1858133507
b10100000 !
#1868124475
b01000000 !
#1868124476
b01000000 !
#1878115425
b10100000 !
#1878115426
b10100000 !
#1888106393
b01000000 !
#1888106394
b01000000 !
#1898097343
b10100000 !
#1898097344
b10100000 !
#1908088312
b01000000 !
#1908088313
b01000000 !
#1918079262
b10100000 !
#1918079263
b10100000 !
#1928070231
b01000000 !
#1928070232
b01000000 !
#1938061181
b10100000 !
#1938061182
b10100000 !
#1948052150
b01000000 !
#1948052151
b01000000 !
#1958043100
b10100000 !
#1958043101
b10100000 !
#1968034068
b01000000 !
#1968034069
b01000000 !
#1978025018
b10100000 !
#1978025019
b10100000 !
#1988015987
b01000000 !
#1988015988
b01000000 !
#1998006937
b10100000 !
#1998006938
b10100000 !
#2007997906
b01000000 !
#2007997907
b01000000 !
#2017988856
b10100000 !
#2017988857
b10100000 !
#2027979825
b01000000 !
#2027979826
b01000000 !
#2037970775
b10100000 !
#2037970776
b10100000 !
#2047961743
b01000000 !
#2047961744
b01000000 !
#2057952693
b10100000 !
#2057952694
b10100000 !
#2067943662
b01000000 !
#2067943663
b01000000 !
#2077934612
b10100000 !
#2077934613
b10100000 !
#2087925581
b01000000 !
#2087925582
b01000000 !
#2097916531
b10100000 !
#2097916532
b10100000 !
#2107907500
b01000000 !
#2107907501
b01000000 !
#2117898450
b10100000 !
#2117898451
b10100000 !
#2127889418
b01000000 !
#2127889419
b01000000 !
#2137880368
b10100000 !
#2137880369
b10100000 !
#2147871337
b01000000 !
#2147871338
b01000000 !
#2157862287
b10100000 !
#2157862288
b10100000 !
#2167853256
b01000000 !
#2167853257
b01000000 !
#2177844206
b10100000 !
#2177844207
b10100000 !
#2187835175
b01000000 !
#2187835176
b01000000 !
#2197826125
b10100000 !
#2197826126
b10100000 !
#2207817093
b01000000 !
#2207817094
b01000000 !
#2217808043
b10100000 !
#2217808044
b10100000 !
#2227799012
b01000000 !
#2227799013
b01000000 !
#2237789962
b10100000 !
#2237789963
b10100000 !
#2247780931
b01000000 !
#2247780932
b01000000 !
#2257771881
b10100000 !
#2257771882
b10100000 !
#2267762850
b01000000 !
#2267762851
b01000000 !
#2277753800
b10100000 !
#2277753801
b10100000 !
#2287744768
b01000000 !
#2287744769
b01000000 !
#2297735718
b10100000 !
#2297735719
b10100000 !
#2307726687
b01000000 !
#2307726688
b01000000 !
#2317717637
b10100000 !
#2317717638
b10100000 !
#2327708606
b01000000 !
#2327708607
b01000000 !
#2337699556
b10100000 !
#2337699557
b10100000 !
#2347690525
b01000000 !
#2347690526
b01000000 !
#2357681475
b10100000 !
#2357681476
b10100000 !
#2367672443
b01000000 !
#2367672444
b01000000 !
#2377663393
b10100000 !
#2377663394
b10100000 !
#2387654362
b01000000 !
#2387654363
b01000000 !
#2397645312
b10100000 !
#2397645313
b10100000 !
#2407636281
b01000000 !
#2407636282
b01000000 !
#2417627231
b10100000 !
#2417627232
b10100000 !
