interrupt-sim.vcd
$timescale 10ns $end
$scope module logic $end
$var wire 8 ! PORT_D $end
$upscope $end
$enddefinitions $end
$dumpvars
bxxxxxxxx !
$end
#419435356
b10100000 !
#419435357
b10100000 !
#519430900
b01000000 !
#519430901
b01000000 !
#619426425
b10100000 !
#619426426
b10100000 !
#719421968
b01000000 !
#719421969
b01000000 !
#819417493
b10100000 !
#819417494
b10100000 !
#919413037
b01000000 !
#919413038
b01000000 !
#1019408562
b10100000 !
#1019408563
b10100000 !
#1119404106
b01000000 !
#1119404107
b01000000 !
#1219399631
b10100000 !
#1219399632
b10100000 !
#1319395175
b01000000 !
#1319395176
b01000000 !
#1419390700
b10100000 !
#1419390701
b10100000 !
#1519386243
b01000000 !
#1519386244
b01000000 !
#1619381768
b10100000 !
#1619381769
b10100000 !
#1719377312
b01000000 !
#1719377313
b01000000 !
#1819372837
b10100000 !
#1819372838
b10100000 !
#1919368381
b01000000 !
#1919368382
b01000000 !
#2019363906
b10100000 !
#2019363907
b10100000 !
#2119359450
b01000000 !
#2119359451
b01000000 !
#2219354975
b10100000 !
#2219354976
b10100000 !
#2319350518
b01000000 !
#2319350519
b01000000 !
#2419346043
b10100000 !
#2419346044
b10100000 !
#2519341587
b01000000 !
#2519341588
b01000000 !
#2619337112
b10100000 !
#2619337113
b10100000 !
#2719332656
b01000000 !
#2719332657
b01000000 !
#2819328181
b10100000 !
#2819328182
b10100000 !
#2919323725
b01000000 !
#2919323726
b01000000 !
#3019319250
b10100000 !
#3019319251
b10100000 !
#3119314793
b01000000 !
#3119314794
b01000000 !
#3219310318
b10100000 !
#3219310319
b10100000 !
#3319305862
b01000000 !
#3319305863
b01000000 !
#3419301387
b10100000 !
#3419301388
b10100000 !
#3519296931
b01000000 !
#3519296932
b01000000 !
#3619292456
b10100000 !
#3619292457
b10100000 !
#3719288000
b01000000 !
#3719288001
b01000000 !
#3819283525
b10100000 !
#3819283526
b10100000 !
#3919279068
b01000000 !
#3919279069
b01000000 !
#4019274593
b10100000 !
#4019274594
b10100000 !
#4119270137
b01000000 !
#4119270138
b01000000 !
#4219265662
b10100000 !
#4219265663
b10100000 !
#4319261206
b01000000 !
#4319261207
b01000000 !
#4419256731
b10100000 !
#4419256732
b10100000 !
